# March 28th 	
94.01830	97.99090	97.99090	94.01830
-34.06390	-34.06390	-27.12330	-27.12330
# March 29th	
95.6621		99.4977		97.6712		93.9269
-34.2466	-32.968		-27.032		-28.2192
# March 30th	
95.1142		98.7215		96.9406		93.379	
-34.3836	-33.242		-27.4429	-28.5388
# March 31st	
92.0988		96.0494		96.0494		92.0988
-34.5082	-34.5082	-28.3607	-28.3607
# April 1st	
91.8996	    95.2688	    98.2079	    94.8387
-33.5484    -35.6989    -31.1111    -28.9606
